[
  {
    "id": 1,
    "name": "United Arab Emirates",
    "native": "دولة الإمارات العربية المتحدة",
    "phone": "971",
    "continent": "AS",
    "capital": "Abu Dhabi",
    "currency": "AED",
    "languages": [
      "ar"
    ]
  },
  {
    "id": 2,
    "name": "Ukraine",
    "native": "Україна",
    "phone": "380",
    "continent": "EU",
    "capital": "Kyiv",
    "currency": "UAH",
    "languages": [
      "uk"
    ]
  },
  {
    "id": 3,
    "name": "Armenia",
    "continent": "ARM",
    "currency": "Dram",
    "languages": [
      "Armenian"
    ]
  },
  {
    "id": 4,
    "name": "Australia",
    "continent": "ARM",
    "currency": "Australian dollar",
    "languages": [
      "English"
    ]
  }
]

